P_XOR/simulation/qsim/P_XOR.msim.vcd
$comment
	File created using the following command:
		vcd file P_XOR.msim.vcd -direction
$end
$date
	Sat Nov 04 20:02:33 2023
$end
$version
	ModelSim Version 10.5b
$end
$timescale
	1ps
$end

$scope module p_xor_vhd_vec_tst $end
$var wire 1 ! A $end
$var wire 1 " B $end
$var wire 1 # S $end

$scope module i1 $end
$var wire 1 $ gnd $end
$var wire 1 % vcc $end
$var wire 1 & unknown $end
$var wire 1 ' devoe $end
$var wire 1 ( devclrn $end
$var wire 1 ) devpor $end
$var wire 1 * ww_devoe $end
$var wire 1 + ww_devclrn $end
$var wire 1 , ww_devpor $end
$var wire 1 - ww_A $end
$var wire 1 . ww_B $end
$var wire 1 / ww_S $end
$var wire 1 0 \~QUARTUS_CREATED_GND~I_combout\ $end
$var wire 1 1 \B~input_o\ $end
$var wire 1 2 \A~input_o\ $end
$var wire 1 3 \G5|S~0_combout\ $end
$var wire 1 4 \ALT_INV_A~input_o\ $end
$var wire 1 5 \ALT_INV_B~input_o\ $end
$upscope $end
$upscope $end
$enddefinitions $end
#0
$dumpvars
0!
0"
0#
0$
1%
x&
1'
1(
1)
1*
1+
1,
0-
0.
0/
x0
01
02
03
14
15
$end
#1000000
1!
1-
12
04
13
1/
1#
#2000000
0!
1"
0-
1.
11
02
14
05
#3000000
1!
1-
12
04
03
0/
0#
#4000000
0!
0"
0-
0.
01
02
14
15
#5000000
1!
1-
12
04
13
1/
1#
#6000000
0!
1"
0-
1.
11
02
14
05
#7000000
1!
1-
12
04
03
0/
0#
#8000000
0!
0"
0-
0.
01
02
14
15
#9000000
1!
1-
12
04
13
1/
1#
#10000000
0!
1"
0-
1.
11
02
14
05
#11000000
1!
1-
12
04
03
0/
0#
#12000000
0!
0"
0-
0.
01
02
14
15
#13000000
1!
1-
12
04
13
1/
1#
#14000000
0!
1"
0-
1.
11
02
14
05
#15000000
1!
1-
12
04
03
0/
0#
