MUX_4-1/simulation/qsim/MUX_41.msim.vcd
$comment
	File created using the following command:
		vcd file MUX_41.msim.vcd -direction
$end
$date
	Sat Nov 04 20:06:13 2023
$end
$version
	ModelSim Version 10.5b
$end
$timescale
	1ps
$end

$scope module mux_41_vhd_vec_tst $end
$var wire 1 ! A $end
$var wire 1 " B $end
$var wire 1 # C $end
$var wire 1 $ D $end
$var wire 1 % S [1] $end
$var wire 1 & S [0] $end
$var wire 1 ' Y $end

$scope module i1 $end
$var wire 1 ( gnd $end
$var wire 1 ) vcc $end
$var wire 1 * unknown $end
$var wire 1 + devoe $end
$var wire 1 , devclrn $end
$var wire 1 - devpor $end
$var wire 1 . ww_devoe $end
$var wire 1 / ww_devclrn $end
$var wire 1 0 ww_devpor $end
$var wire 1 1 ww_A $end
$var wire 1 2 ww_B $end
$var wire 1 3 ww_C $end
$var wire 1 4 ww_D $end
$var wire 1 5 ww_S [1] $end
$var wire 1 6 ww_S [0] $end
$var wire 1 7 ww_Y $end
$var wire 1 8 \~QUARTUS_CREATED_GND~I_combout\ $end
$var wire 1 9 \D~input_o\ $end
$var wire 1 : \C~input_o\ $end
$var wire 1 ; \S[0]~input_o\ $end
$var wire 1 < \S[1]~input_o\ $end
$var wire 1 = \A~input_o\ $end
$var wire 1 > \B~input_o\ $end
$var wire 1 ? \U3|Y~0_combout\ $end
$var wire 1 @ \ALT_INV_A~input_o\ $end
$var wire 1 A \ALT_INV_B~input_o\ $end
$var wire 1 B \ALT_INV_C~input_o\ $end
$var wire 1 C \ALT_INV_D~input_o\ $end
$var wire 1 D \ALT_INV_S[0]~input_o\ $end
$var wire 1 E \ALT_INV_S[1]~input_o\ $end
$upscope $end
$upscope $end
$enddefinitions $end
#0
$dumpvars
0!
0"
0#
0$
0'
0(
1)
x*
1+
1,
1-
1.
1/
10
01
02
03
04
07
x8
09
0:
0;
0<
0=
0>
0?
1@
1A
1B
1C
1D
1E
0%
0&
05
06
$end
#1000000
1!
11
1=
0@
1?
17
1'
#2000000
0!
1"
1%
01
12
15
1<
1>
0=
1@
0A
0E
0?
07
0'
#3000000
1!
11
1=
0@
#4000000
0!
0"
0%
1#
1&
01
02
16
05
13
1:
0<
1;
0>
0=
1@
1A
0D
1E
0B
#5000000
1!
11
1=
0@
#6000000
0!
1"
1%
01
12
15
1<
1>
0=
1@
0A
0E
#7000000
1!
11
1=
0@
#8000000
0!
0"
0%
0#
0&
1$
01
02
06
05
03
14
19
0:
0<
0;
0>
0=
1@
1A
1D
1E
1B
0C
#9000000
1!
11
1=
0@
1?
17
1'
#10000000
0!
1"
1%
01
12
15
1<
1>
0=
1@
0A
0E
0?
07
0'
#11000000
1!
11
1=
0@
#12000000
0!
0"
0%
1#
1&
01
02
16
05
13
1:
0<
1;
0>
0=
1@
1A
0D
1E
0B
#13000000
1!
11
1=
0@
#14000000
0!
1"
1%
01
12
15
1<
1>
0=
1@
0A
0E
1?
17
1'
#15000000
1!
11
1=
0@
